%YAML 1.1
%TAG !u! tag:unity3d.com,2011:
--- !u!114 &11400000
MonoBehaviour:
  m_ObjectHideFlags: 0
  m_CorrespondingSourceObject: {fileID: 0}
  m_PrefabInstance: {fileID: 0}
  m_PrefabAsset: {fileID: 0}
  m_GameObject: {fileID: 0}
  m_Enabled: 1
  m_EditorHideFlags: 0
  m_Script: {fileID: 11500000, guid: 383f222e02c3321448aede854cc119f4, type: 3}
  m_Name: Barrel Info
  m_EditorClassIdentifier: 
  BarrelName: M416Default
  BarrelGameObject: {fileID: 6816763519162996723, guid: 75318b078bf980b4db1d21e2038024f3,
    type: 3}
  BarrelType: 0
  DeltaMuzzlePointOffset: {x: 0, y: 0, z: 0}
  BarrelOnFirearms:
  - FirearmName: M416
    Position: {x: 0, y: 0, z: 0}
    Rotation: {x: 0, y: 0, z: 0, w: 0}
  WeaponAttachDelta:
    DeltaSoldierDamage: 0
    DeltaLightArmorDamage: 0
    DeltaHeavyArmorDamage: 0
    DeltaRecoliFadeTime: 0
    DeltaBulletSpeed: 0
    DeltaSpreadAngle: 0
    DeltaFireRate: 0
    DeltaHorizontalRecoil: 0
    DeltaVerticalRecoilRange: 0
    DeltaScreenSpringRange: 0
    DeltaDampSpeed: 0
