%YAML 1.1
%TAG !u! tag:unity3d.com,2011:
--- !u!114 &11400000
MonoBehaviour:
  m_ObjectHideFlags: 0
  m_CorrespondingSourceObject: {fileID: 0}
  m_PrefabInstance: {fileID: 0}
  m_PrefabAsset: {fileID: 0}
  m_GameObject: {fileID: 0}
  m_Enabled: 1
  m_EditorHideFlags: 0
  m_Script: {fileID: 11500000, guid: 062397df6fab5d840b004e5f704572f2, type: 3}
  m_Name: Impact Audio Data
  m_EditorClassIdentifier: 
  ImpactTagsWithAudios:
  - Tag: Metal
    ImpactAudioClips:
    - {fileID: 8300000, guid: fceb333e433c97e4497267e3c3a508c3, type: 3}
    - {fileID: 8300000, guid: f49b461f95e0def45b1ad2a5a350e574, type: 3}
  - Tag: Wood
    ImpactAudioClips:
    - {fileID: 8300000, guid: 091908a06d0b56143aaf6d3913444ab7, type: 3}
    - {fileID: 8300000, guid: fd208dd7a0eafc84f82ad5fde72ab8fc, type: 3}
